…
```r
# Number of Invoices 
product %>% 
  count(INVOICE_NO)
```

```
## # A tibble: 13,389 × 2
##    INVOICE_NO     n
##    <chr>      <int>
##  1 52389          1
##  2 52390          1
##  3 52391          1
##  4 52392          1
##  5 52393          1
##  6 52394          1
##  7 52395          1
##  8 52396          1
##  9 52397          1
## 10 52398          1
## # … with 13,379 more rows
```
…
```
## # A tibble: 96 × 4
##    PRODUCT_ID MALE_SALE FEMALE_SALE TOTAL_SALE
##    <chr>          <int>       <int>      <int>
##  1 2190             132          75        207
##  2 2226             123          81        204
##  3 2213             114          90        204
##  4 2192             135          66        201
##  5 2158             120          78        198
##  6 2172             114          75        189
##  7 2179             102          87        189
##  8 2239              87         102        189
##  9 2225             117          69        186
## 10 2183             123          60        183
## # … with 86 more rows
```
…
